{
  "name": "AggregateSpecialTeam",
  "plural": "aggregateSpecialTeams",
  "base": "Model",
  "properties": {
    "name": "String"
  },
  "validations": [],
  "relations": {
    "periods": {
      "type": "embedsMany",
      "default": [],
      "model": "AggregatePeriod",
      "options": {
        "validate": false,
        "autoId": false
      }
    }
  },
  "acls": [{
      "accessType": "*",
      "principalType": "ROLE",
      "principalId": "$everyone",
      "permission": "DENY"
      }, {
          "accessType": "*",
          "principalType": "ROLE",
          "principalId": "ISA",
          "permission": "ALLOW"
          }, {
              "accessType": "*",
              "principalType": "ROLE",
              "principalId": "$authenticated",
              "permission": "ALLOW"
              }],
  "methods": []
}
