{
  "name": "AggregatePeriod",
  "plural": "aggregatePeriods",
  "base": "Model",
  "properties": {
    "period": "Number",
    "points": {
      "goal": { "type": "Number", "default": 0},
      "assits": { "type": "Number", "default": 0},
      "total": { "type": "Number", "default": 0}
    },
    "plusminus": { "type": "Number", "default": 0}
  },
  "validations": [],
  "relations": {},
  "acls": [{
      "accessType": "*",
      "principalType": "ROLE",
      "principalId": "$everyone",
      "permission": "DENY"
      }, {
          "accessType": "*",
          "principalType": "ROLE",
          "principalId": "ISA",
          "permission": "ALLOW"
          }, {
              "accessType": "*",
              "principalType": "ROLE",
              "principalId": "$authenticated",
              "permission": "ALLOW"
              }],
  "methods": []
}