{
  "name": "Season",
  "plural": "seasons",
  "base": "PersistedModel",
  "properties": {
    "uuid": {
      "type": "string"
    },
    "name": {
      "type": "string",
      "required": true,
      "unique": true
    },
    "startDate": {
      "type": "date"
    },
    "endDate": {
      "type": "date"
    },
    "price": {
      "type": "string"
    },
    "active": {
      "type": "string"
    }
  },
  "relations": {
    "app": {
      "type": "belongsTo",
      "model": "App",
      "foreignKey": "appId"
    },
    "masterSeason": {
      "type": "belongsTo",
      "model": "MasterSeason",
      "foreignKey": "masterSeasonId"
    }
  },
  "validations": [],
  "acls": [{
      "accessType": "*",
      "principalType": "ROLE",
      "principalId": "$everyone",
      "permission": "DENY"
  }, {
      "accessType": "*",
      "principalType": "ROLE",
      "principalId": "ISA",
      "permission": "ALLOW"
  }, {
      "accessType": "READ",
      "principalType": "ROLE",
      "principalId": "$authenticated",
      "permission": "ALLOW"
  }, {
      "accessType": "READ",
      "principalType": "ROLE",
      "principalId": "$authenticated",
      "permission": "ALLOW",
      "property": "price"
  }, {
      "accessType": "READ",
      "principalType": "ROLE",
      "principalId": "$authenticated",
      "permission": "ALLOW",
      "property": "trialExpiry"
  }, {
      "accessType": "READ",
      "principalType": "ROLE",
      "principalId": "$authenticated",
      "permission": "ALLOW",
      "property": "trialLength"
  }],
  "methods": []
}
