{
  "name": "Team",
  "plural": "teams",
  "base": "PersistedModel",
  "properties": {
    "uuid": {
      "type": "string"
    },
    "name": {
      "type": "string",
      "required": true
    },
    "photo": {
      "type": "string"
    }
  },
  "relations": {
    "teamSeasons": {
      "type": "hasMany",
      "model": "TeamSeason"
    }
  },
  "validations": [],
  "acls": [{
      "accessType": "*",
      "principalType": "ROLE",
      "principalId": "$everyone",
      "permission": "DENY"
  }, {
      "accessType": "*",
      "principalType": "ROLE",
      "principalId": "ISA",
      "permission": "ALLOW"
  }, {
      "accessType": "READ",
      "principalType": "ROLE",
      "principalId": "$authenticated",
      "permission": "ALLOW"
  }],
  "methods": []
}
